id,text
786425556464119808,Wilkie puts Utas STEM on PM's agenda #politas https://t.co/fVY0g3J4Wn
786364196837396481,Council rates grab from retirees touches raw nerve with pensioners https://t.co/K9PptHju4W #politas
786333507685449728,"Entitlements reform long overdue #auspol #politas 
https://t.co/jq2MvAyXWh"
785675657682366464,Support young people with mental health issues on #headspaceday today. Visit https://t.co/KJauFrU1AE to find out how.
785621940337725440,https://t.co/PtWj6HyTI1 Mike Baird's government gone to the dogs #auspol #politas
785290410671255553,https://t.co/WWoGAxDNml Bill to ban foreign donations tabled today #auspol #politas
784152384092016641,Glenorchy mobilises against more poker machines #politas https://t.co/TEe3xsMs1J
783213358426185728,https://t.co/jNFiMI8CuN A statement on the proposed new pokies venue in Glenorchy #auspol #politas
781751108809007104,The Wilkie Report September 2016 #politas #auspol https://t.co/f819agFZuO
781646339348180992,"John Howard should be in court, not picking up an award at a university #politas #auspol
https://t.co/1fsFY0mlcb"
780535089264340992,https://t.co/Wd9K8MfCuJ Pokie Leaks: Shining a light on the poker machine industry #auspol #politas
778365590884921345,"https://t.co/fsmPmhmoKO Asbestos at the Royal Hobart Hospital: Endangering workers, staff and patients #auspol #politas"
778013787911708673,https://t.co/lBpkNUPB1h Clubs NSW slithers back into the shadows to avoid opening its books #auspol #politas
777400327515443200,"Oz should not have invaded or stayed in the Middle East. Howard, Rudd, Gillard, Abbott, Turnbull all have blood on their hands. AW #auspol"
776280573107015680,Axe the backpacker tax #politas #auspol https://t.co/u4nXcCGnqE
775968270566383618,A statement on rorting in the aged care sector https://t.co/BYmRl1I3Vb #auspol #politas
775966048059219968,Question to the Minister on aged care https://t.co/hRBXnRQoFM #auspol #politas
775965967339835392,Speech on Omnibus Bill amendments https://t.co/30n5VusFZX #auspol #politas
775965878747738112,Speech on Omnibus Bill https://t.co/cXhDtbV4zM #auspol #politas
775965791564943360,Speech on fish farming https://t.co/UMCgwXgqHi #auspol #politas
775162284645634048,https://t.co/LOYhH8mOsP Cross-party marriage equality bill introduced #auspol #politas
774866459998642177,"PM links Minto attack to 9/11. Sick politicking, although both attacks indeed on account of meddling in Middle East. AW #auspol #politas"
773665628301385733,"Wilkie moves on foreign donations while the parties just talk about it #politas #auspol
https://t.co/EIXv8jo5ak"
773440112491393024,John Howard says you can't have 50% women in politics as they look after the kids. Crap. I'm a single dad with 50% care. AW #auspol #politas
772960093935505410,https://t.co/CEF5WHrnlB Australian Government obsessed with hiding Nauru horrors - Wilkie visit now officially denied by Nauru Government
771521891446030336,https://t.co/AUkechfU7V Wilkie Nauru visit canned: Government obsessed with hiding the truth #auspol #politas
770865884499804160,https://t.co/v0T7klbfxI The Wilkie Report August 2016 #auspol #politas
770520649030696960,https://t.co/AvwH1OuwAy  A statement on marriage equality #auspol
767874883791585280,https://t.co/StceFIqKQK Problem gamblers losing more than ever #auspol #politas
763343079621308423,So what now of mandatory metadata retention? Introduced by the Liberal Party and supported by Labor. OMG. AW #auspol #CensusFail
763280829611020288,This census must be abandoned. Results worthless. Shocking waste of money. Minister and ABS chief must be sacked. AW #auspol #CensusFail
762640441464397824,Absurd. I'm currently in Singapore and not required to do Census. So I have more privacy in a benevolent dictatorship than in Oz! AW #auspol
762592149225385985,"Census = no privacy anymore. Correct, though government metadata retention trashed that entirely already. 1984 is here. AW #auspol #politas"
760651246306930688,https://t.co/jPyrSL9y9a A statement on the census shambles #auspol #politas
760388536537231360,The big banks made $15bn profit in last 6 months. But they refuse to pass on the RBA rate cut in full. A-grade bastards. AW #politas #auspol
757725431382409216,https://t.co/Yyes4q9Vo3 A statement on the Northern Territory youth justice system #auspol
753366023487709184,https://t.co/FqUkebJPyx Gambling reform firmly on agenda for new Parliament #auspol #politas
752461618647175168,"One of those iconic pictures that says it all really, AW..... https://t.co/lj0yXJYDtq"
751623770469601281,https://t.co/s2U4AEB11B Federal election result #auspol #politas
751210609417392128,https://t.co/0wgcY7Xwq8 A statement on the federal election #auspol #politas
750842524672012289,https://t.co/fzK54emHT7 A statement regarding the election and Bob Brown #auspol #politas
750842019166113792,https://t.co/tIyGiAke4C Chilcot Inquiry into the Iraq War #auspol #politas
747215952178089984,"https://t.co/LlmWj3l7r9 Turnbull's hung Parliament comments: dishonest, arrogant and dangerous #auspol #politas"
746166613284577280,Traffic jams to continue under ALP's transport plan #politas https://t.co/GiMTr117bu
745753694461792257,https://t.co/qRBkHaKvfk Government takes sledgehammer to live export whistleblower #auspol #politas #BanLiveExport
745552075837214721,ABC TV proves again that monsters control live animal export trade. Barnaby Joyce an A-grade sadist. AW #auspol #politas #banliveexports
744852644875800577,McGuire a laughing stock. But Kennett supposedly credible. Good grief. And he thinks pokies are a good idea. Hypocrite. AW #auspol #politas
744833978960515073,So I reckon Eddie McGuire and Jeff Kennett are A-grade idiots. Misogyny and inciting violence are never acceptable. AW #auspol #politas
744711632417230848,Please consider donating as every dollar helps fund election advertising and other expenses. https://t.co/bxY8sPUNnv #auspol #politas
743578457804660737,Government approves of animal cruelty #politas #auspol #liveexport #animalsaustralia https://t.co/s4O8TVyaw3
742272341053308928,"Trump blames Islam. But religion is not the problem, extremism is. Trump chills me to the bone. AW #auspol #politas #scarierthantrump"
738528190159671298,"Labor set to preference Liberals in Denison again #politas #auspol #ausvotes
https://t.co/euxxRXZE10"
738187950287028225,https://t.co/ynQ9b7VZjQ Government puts the boot into older Australians #auspol #politas
737917376386236416,"@corybernardi - bigot, homophobe and now supporter of the rape advocate that even Dutton didn't want to let in. AW #auspol #scarierthantrump"
737513977555492866,https://t.co/nVz87UItBT Andrew Wilkie outlines climate change targets #auspol #politas
737216818247434240,Oz wins World Rugby Women's Sevens and media rates it a footnote. That's bullshit. A men's win would lead the news. AW #politas #ausvotes
735701215955161088,https://t.co/trZdt5Uc3B A statement on the State Budget #auspol #politas
735636931745185792,https://t.co/0OyKjpGFWw Tony Blair concedes Iraq debacle – Beyond time for Howard and Downer to be held to account #auspol #politas
735420530057043969,Barnaby Joyce linked suspension of live exports to increased asylum seeker boats. He's mad or bad. Most likely mad. AW #politas #auspol
735361081040883713,https://t.co/50MEkVcPiG State Budget a chance to repair health and education #politas #auspol
733077879555121153,https://t.co/jfMXLnhlrC Dutton must resign as Immigration Minister #auspol #politas
732899911021142016,Dutton is a racist and Turnbull no better if he doesn't sack him.  Not fit to be in parliament. Liberal Party at its worst. Disgusting.
732787728551706626,https://t.co/n03JHPkUgf A statement on the disallowance of the Chigwell bottleshop #politas
732737467481120768,https://t.co/6piZADfynD Government must stop playing politics on ice addiction #auspol #politas
730955207371198464,https://t.co/neAsKf4ClD Cadbury money now officially Liberal Party slush fund #auspol #politas
730244323531362304,https://t.co/WmUOtdVURb New Tasmanian planning scheme raises concerns #politas
729155532133523456,"https://t.co/m7OrKTTwz7
A STATEMENT ON THE ELECTION ANNOUNCEMENT
#auspol and #politas"
728088101638135810,https://t.co/UryBB4HQLd Public service job cuts prove Tassie isn't on Turnbull's radar #auspol #politas
727436829062918144,https://t.co/cMS0ptpPGY A bad budget for Tasmania #auspol #politas
726965869092331520,https://t.co/XFJgnspUFV Wilkie takes pokies reform to the Parliament - again #auspol #politas
725134671764320257,https://t.co/hlmylbVwfp State Government must save PEN nurses #auspol #politas
724852825042374659,https://t.co/wH8cuiX96G Manus Island more illegal than ever #auspol
724852309994442752,"https://t.co/YLwGN22SsJ ""Big"" CSIRO announcement just smoke and mirrors #auspol #politas"
723329678388301824,https://t.co/PdEtii3MUB Child dental cuts will bite hardest in Tasmania #auspol #politas
721936865478094848,https://t.co/YB0pwAfBrW Patrol boat announcement - Canberra rubs salt into Tassie's wounds #auspol #politas
721936236957401090,https://t.co/bOylI7xt84 PM looking dodgy on Tassie health #auspol #politas
717552669452165121,https://t.co/aHptTaWXGv Canberra takes an axe to pathology - and Tasmanians set to suffer more than most #auspol #politas
715023616136581120,https://t.co/feHuiGTCkX Premier must rule out Tasmanian income tax #auspol #politas
710311189197094914,https://t.co/Uim5IhH3EM Tasmanian poker machine madness set to continue #auspol #politas
704877447225868288,https://t.co/Vw1hm6wtWF Prime Minister sells out on poker machine reform #auspol #politas
704080204298190848,https://t.co/MoBiGjCiTd A statement on my meeting today with the Prime Minister #auspol #politas
702644873380257792,https://t.co/5mip9L3hQ8 Victorian workers on RHH rebuild? #politas
702644498547892225,"https://t.co/iBKjbClgv1 Defence spending, Bernardi and Nikolic: Turnbull kowtows to the dangerous right wing #auspol"
702287781595185152,https://t.co/3ez1Tx6ZkX Speech on changes to Metro routes and schedules #politas
702271865796956160,https://t.co/vC5wJuPCzM Malcolm Turnbull stars as Brigadier General Jack D. Ripper in Dr. Strangelove 2 #auspol
702014657729425408,https://t.co/9QLZo2CHRn A statement on CSIRO job losses #auspol #politas
701970687146070016,https://t.co/3u6uf0h2Df A statement on the VDL sale #auspol #politas
701645978953121793,https://t.co/mvIiMbw46d Wilkie moves censure of Immigration Minister #auspol
700501769948782593,https://t.co/wNPJzCYpik Metro leaving passengers on the side of the road #politas
699817080837836800,"https://t.co/oDkin3SGib
SUPER TRAWLERS stink and should be scuttled
#auspol #politas"
697572154569674752,https://t.co/cNZhAkAHUL Sending kids to Nauru is a crime - ICC at the Hague notified of latest outrage #auspol
696564961577824257,https://t.co/expPMgdXrz Government continues to mislead on defined benefit pensions #auspol #politas
689571403855605760,https://t.co/bPr0W1yjtM Violence against paramedics #auspol #politas
687046379399544832,Very Cross Benchers unite over VDL sale https://t.co/i8FOi2k2q9 #politas #auspol
676585296771678212,"https://t.co/Y6vF4Bkl4B The Federal Group, dodgy deals and blackmail #politas"
674732607020642305,https://t.co/Qb3DUf126b Government must shut down greyhound industry #auspol #politas
674035469156556800,https://t.co/7PS1Ay3zy7 Government must intervene in VDL sale #auspol #politas
671906520775323648,https://t.co/e0i9qqvlxC The great Aussie fire sale set to continue #auspol #politas
671804705568256001,https://t.co/VOwMAgXgHQ Don't sell off the farm #auspol #politas
670127427520073732,https://t.co/UpysKU643d Clubs NSW folds #auspol #politas
669287992004079616,https://t.co/At9o0X7Q5n Registered Clubs Association of NSW suing Andrew Wilkie #auspol #politas
669018908976877568,https://t.co/WHmaKBfj8y A statement on Tasmanian health funding #auspol #politas
666811042455007232,https://t.co/fih3q6HquZ A statement on today's Tasmanian gambling report #auspol #politas
666395004135276544,https://t.co/pbCBoDkGFF PM must not reinforce failure in Syria/Iraq #auspol #politas
664596162016649217,https://t.co/Lkh290Lgyh Shame on the pokies industry and their mates in the Liberal and Labor parties #auspol #politas
664282774547902464,Andrew joined members of the crossbench to oppose any increase in the GST #auspol #politas https://t.co/NIMoUcT3Ho
663571567897477120,https://t.co/jXT7whlL65 Pressure builds on Tasmanian Government to deliver light rail #auspol #politas
658425161037795328,"https://t.co/GDznGmeQMz Tony Blair's ""apology"" gives the game away #auspol"
657403701179600896,https://t.co/YHvBpMcASN Inquiry into Glenorchy City Council - employees scared to talk #politas
657011175557763072,https://t.co/kY0sMp3h86 A statement on the China Free Trade Agreement #auspol
656666348760662017,https://t.co/C49F5OTqda Andrew speaks about climate finance #auspol
656601633401376768,https://t.co/j3yiao4MJP Government must act on family violence court delays #auspol
656297439083630592,Andrew joined GetUp to call for Malcolm Turnbull to finally do the right thing by pregnant refugee Abyan. https://t.co/edUUNHta7k
656254486785097730,https://t.co/7eKwMHoH3I Case against Australia builds at the Hague #auspol
654771459915550721,This week is Carers Week. Show your support for the 2.7 million unpaid carers in Australia by making a pledge at http://t.co/cOXcAmkslW.
654531432971243520,Talked climate finance with @OaktreeAU. Government must act to help communities overseas cope with climate change. http://t.co/Lkdydl5OBd
654502853348691968,http://t.co/Ju6EX0Kl0i Andrew asks Barnaby Joyce if he’ll change his title to “Minister for Animal Cruelty” #auspol #banliveexport
654102325737336834,http://t.co/JEcvxVUHeF Andrew gets stuck into the Government for their shameful treatment of the unemployed #auspol #politas
653824209852874753,http://t.co/I93QZSlrAJ Andrew speaks on changes to coastal shipping laws #auspol #politas
653404290615128064,http://t.co/39AGg7mrw4 Andrew Wilkie speaks on marriage equality #auspol
652246149131292673,http://t.co/IJKj27KrmR It's time - beyond time - for light rail in Hobart #politas
651959450857828353,http://t.co/N1UDmowzlp A statement regarding the possible bribery of politicians #auspol
651178548128968704,http://t.co/7q7aC6QJSh Turnbull Government hates animals as much as the Abbott Government did #auspol #banliveexport
650883956632498176,http://t.co/g3kyxhno7j A statement on the never-ending madness in Nauru #auspol
649389496820199424,http://t.co/e3MVtNXSai A statement on more Cadbury job losses #politas #auspol
647291770330439680,Death Cult /deth kuhlt/ n. 1. Islamic State. 2. left-wing student politicians who listen to alternative music. 3. Karen. #freekaren #auspol
644337590376656896,http://t.co/C3AovlIgMj Andrew Wilkie speaks about Tasmanian jobs #auspol #politas
644009858828759044,"http://t.co/zs37fRVRSx Liberal, and Labor, abandon Glenorchy jobs #auspol #politas"
643982067781476352,http://t.co/TgoHnDatA0 A statement on Federal Group's blackmail threat #auspol #politas
643981914496454657,"http://t.co/FPzWSgmeLA Government must do more, much more, about Bass Strait #auspol #politas"
641803706170650628,"https://t.co/uPyIDhvYZ8
  Andrew Wilkie warns Parliament that Australia is becoming a police state
  #auspol #politas"
641436762963857408,http://t.co/TwskARTZ0G A statement on bombing Syria #auspol
641117497266081792,https://t.co/RBLwamtlQv Parliament must intervene today on Syria crisis #auspol
641041895678853120,http://t.co/XrIgU4dtHn Parliament must intervene today on Syria crisis #auspol
639977739995353088,"http://t.co/r8rPe90FHN
ABBOTT BETRAYS GLENORCHY
#auspol #politas"
639219850422951936,http://t.co/TgAfCLXIDZ Arts funding cuts must be reversed #auspol #politas
637129752084639744,http://t.co/8YMe5fT9rX A statement on Border Force random visa checks #auspol
635682045297979392,http://t.co/bWXRUIfiql A statement on the dispute between Medibank and Calvary #auspol #politas
633863602802307076,http://t.co/UAOqsfjDIr Andrew Wilkie asks the Health Minister about the National Mental Health Commission's report #auspol #politas
633802310443925504,http://t.co/oskgOdLb9Q Andrew Wilkie speaks in the Parliament about arts funding #auspol #politas
633072069542965248,Proud to co-sponsor a bill to legalise marriage equality. #auspol http://t.co/W9KR1J9dAY
630894035117301762,http://t.co/5wdwiFro4M A statement regarding political donations #auspol #politas
629072452656562176,http://t.co/7xckq4bFc6 A statement on my travel expenses #auspol
628358766556266496,http://t.co/Yto4zi6diU Time for Finance Department to audit all pollies #auspol
627744382800654336,http://t.co/MVoyCajQct A statement on Bronwyn Bishop's resignation as Speaker #auspol
627252073176924161,http://t.co/ZyPCz7WpBZ A statement on Bronwyn Bishop's latest travel outrages #auspol
626992133258412032,The Wilkie Report July 2015 https://t.co/nwsEtWwsPC via @YouTube
626262047110639616,http://t.co/0qBkRNMJlb Palmer and Wilkie to move no confidence motion in Speaker #auspol
625821282307694592,Dirty money and dirty deals: Pollies caught in bed with pokies barons http://t.co/O03dv1o67y #politas #auspol
624379315854159872,"Barnaby Joyce hates sheep, as well as dogs and cows!http://t.co/Ujuh82R3hH #politas #auspol"
619281936675028992,Trans-Pacific Partnership would be disastrous for Australia #politas #auspol http://t.co/v5JIHa33Ei
618936506724413440,Super trawler now completely off the leash #politas #aupol http://t.co/QCNcssBPAF
616835129055391744,"A statement on the continued stalling on the legalisation of hemp for food #politas #auspol
http://t.co/zPfGhQHnn8"
616796652150525956,Metro push to cashless tickets must not disadvantage elderly or vulnerable #politas http://t.co/MXIHKVg3r5
616751351083614208,Metro must reassure community on move to cashless fares  #politas http://t.co/kwhf0jpjS1
616387512387309568,Time to lft the ban on hemp for food #politas #auspol http://t.co/bfqiPq8hes
616387342782197760,A statement on the cross-party Marriage Equality Bill #politas #auspol http://t.co/EELVGB8MNC
614300477497348096,"The Wilkie Report June edition looks at marriage equality #politas #auspol
http://t.co/2nfgew4iZr"
613633954814431233,"https://t.co/5WQKW87PTS  WILKIE ONLY MEMBER TO VOTE AGAINST OFFSHORE PROCESSING
  #auspol #politas"
613623652056043520,"http://t.co/qYkHqXDTJp
  WILKIE ONLY MEMBER TO VOTE AGAINST OFFSHORE PROCESSING
  #auspol #politas"
612856125948477440,Pension changes poorly designed https://t.co/H9RsKxTKZm via @YouTube #politas #auspol
612854491289747456,"Three strikes and you should be out.  Ban the Geelong Star from Australian waters #politas #auspol
http://t.co/Qnx1RonmUg"
611397062211473408,Andrew Wilkie urges Forestry Tasmania probe #politas #auspol https://t.co/I8wctk22Fs via @YouTube
611346525902340096,"Abbott at odds with the Pope #politas #auspol
http://t.co/XpmmflpwpE"
610693483704127490,"https://t.co/sgWNHHp20n
PM does not agree to Wilkie's request for Iraq War inquiry
#auspol #politas"
610615122243878914,"http://t.co/Ez7H102sK1
MEDIA ALERT – IRAQ WAR AND ISLAMIC STATE
  #auspol #politas"
610232672573456384,"http://t.co/yHDx7VP2fL
Our nation fast becoming a police state
#auspol #politas"
609153042840162305,"Integrity Commission should act on Forestry Tasmania #politas
http://t.co/JJitArNJNJ"
606629035934777344,A statement on alleged spying on Hanson-Young #auspol #politas @sarahinthesen8 http://t.co/uzAGkYT7j0
606601526111404032,Last drinks: Chigwell says no to bottle shop # politas http://t.co/BSuYLoms4I
606303062597103616,"Time for a Royal Commission into Forestry Tasmania #politas #auspol 
https://t.co/bwhM5dooBf"
605873109661458433,http://t.co/UoEh7gYweq Andrew speaking in the Parliament about the Renewable Energy Target changes #auspol #politas
605609500049940482,http://t.co/WB43XibhMA A statement on the Cadbury money #auspol #politas
605225885835362304,http://t.co/6qykhmH76m Liberal Party letting Tasmanian farmers down #auspol #politas
603801715192639488,http://t.co/jPI99h4kkN A statement on the State Budget #auspol #politas
603755658257801216,http://t.co/EwZeTwZbqp Andrew speaking in the Parliament about the Federal Budget #auspol #politas
603717892421623808,The Wilkie Report May edition.  The focus is the Federal Budget. #politas #auspol http://t.co/VIHmhkpgZN
603351483225088000,http://t.co/MvBIFxmMlg Getting stuck into the Government and Barnaby Joyce over live export cruelty in Vietnam #auspol #banliveexport
603087622630682625,http://t.co/p4qQMBxk2C State Government promises more jobs while trashing kids’ chances of getting a job #politas #auspol
601560671302524928,Bitter Cadbury chocolate #politas #auspol http://t.co/ECf8rc807Q
601560452728913920,"False economy won't save the budget #politas
http://t.co/OGUx75Xy0P"
600146088960491520,A statement on the renewable energy sellout #politas #auspol http://t.co/SQ76IZfyAR
599025834767163392,A statement on pork barrelling #auspol #politas http://t.co/Eq0hsFdP6q
599025591623397376,"A statement on an iron ore inquiry#auspol #politas
http://t.co/ATcsdLBRP9"
598724416759943168,PM must intervene to stop Victoria ripping off Tasmania #auspol #politas https://t.co/yrmfqMhNqm
598294895808221184,http://t.co/6dX6JhV434 Speech on the Federal Budget #auspol #politas
598079685365469186,http://t.co/LTdOxAEmIa Budget a bag of sugar and poison #auspol #politas
597537077786378240,A fairytale escape from a parent's worst nightmare #politas #auspol http://t.co/SzrFIXcXpn
595069965352316928,"This week, thousands of Australians are living on $2 a day for 5 days to help end extreme poverty. Visit http://t.co/JhBT7BPApV to donate."
593671629336514560,"The Wilkie Report: Why Australia's intelligence sharing deal with Iran is flirting with evil #politas #auspol
https://t.co/fITNd40o3V"
592922463614279680,http://t.co/7sFMU7PrnK Déjà vu: Huge question mark over super trawler quota setting #auspol #politas
590018485410861057,"Allied health cuts are bad medicine #politas #auspol
http://t.co/chef6qj5XM"
589949869852262400,Australia flirting with evil #politas #auspol http://t.co/HWb4npJh5u
587840951097229312,RT @YNOT_Tas: @WilkieMP 15 April is Youth Homelessness Matters Day. RT to #endyouthhomelessness for 26k Aussies #YHMD2015 http://t.co/u041q…
585938142089252864,Federal Government kicks Tasmanians in the teeth and eyes #politas #auspol http://t.co/omcRb1aAXR
583492769252900865,http://t.co/K050MFoC8v A statement on Clubs Australia's accusation that I'm a liar #auspol
583071593871462400,"Andrew joined the AEU, parents and state MPs to call on the State Government to rule out further education cuts. http://t.co/oxPAsxOuo1"
581298940554833920,"The Wilkie Report, which explains the dangers of mandatory data retention #politas #auspol https://t.co/TnUn6xc0AU"
580971473663234048,A statement on the Third Social and Economic Impact Study of Gambling in Tasmania #politas #auspol http://t.co/bjZwILqnno
580950854028566529,"Pyne holds Utas to ransom #politas #auspol
http://t.co/D32BsI12Ic"
578685278740582400,Glenorchy City Council shenanigans symptomatic of broader political failure #politas http://t.co/wOddLHdXhF
578679596012281858,"Gonski funds must go to the classroom #politas #auspol
http://t.co/AKrXyh5zeh"
578342094969835520,UN adds weight to case against Government at the Hague #auspol #politas http://t.co/s81jCmBzRp
578021933553340417,http://t.co/vVY26mRbCf Wilkie to oppose dud metadata bill #auspol
577971134676635648,http://t.co/oWEsShj6FN Another super trawler heading to Australia! #auspol #politas
577325800573173760,"PM dodges question on sending kids in detention back to Nauru #politas #auspol #asylumseeker 
http://t.co/ObLKWMULMi"
577291310874304512,Government thinks some kids more precious than others #politas #auspol #asylumseeker http://t.co/0ZrcHSr4GK
576222698797334528,Wilkie meeting PM to push for even more Bass Strait investment #politas #auspol http://t.co/OHZ42awCjO
575810074418880514,Important piece of South Hobart history saved #politas http://t.co/XuxfzTXdEL
575518967642656768,http://t.co/vWWmYjaiOO A statement on Glenorchy City Council's troubles #politas
573335282319147008,A statement on the Cadbury decision to abandon the Claremont tourism centre #politas #auspol #chocolate http://t.co/wYNBnceu31
572944717899431936,http://t.co/gYxRjDgjAO Invest in allied health to heal hospital budgets #auspol #politas
572944124967403520,http://t.co/tEGlCTc5QJ Andrew appeared on RN Breakfast to discuss the Federal Government's decision to send another 300 soldiers to Iraq.
572922329187020801,http://t.co/dP65iTVDtO Government silence deafening on Bass Strait cost equalisation #auspol #politas
572559593299025920,http://t.co/I9ZORjVMDU A statement on more troops to Iraq #auspol
572182891699941376,Andrew joins Bob Katter and Snow White to push for  warning labels on imported foods. #politas #auspol http://t.co/7IOnLtIQDf
572154201716871168,"An opinion piece published in the Mercury on why the State Government must ban #fracking 
#politas http://t.co/B8mfrv96dM"
571071612792934400,People of Denison promised timelines on the NBN #NBN http://t.co/nphDgvy6R0
570819035681550336,People of Denison promised timelines on NBN #politas #NBN http://t.co/QBgnD7oW9P
570818737466531841,Tasmanian Government should slam the door shut on fracking #politas #fracking http://t.co/x9v0gcEY52
570128304633556992,A former staffer of mine who worked on #liveexport is now making this documentary: http://t.co/aDuX6NlNSU &amp; http://t.co/yqmpzXRLUm
570043801881874432,http://t.co/yy8A6YeVe5 Speech on the Government's higher education reforms #auspol #politas
570013145822949380,Andrew joined actors and the MEAA to oppose the proposed winding back of protection for Australian actors and crew. http://t.co/KXOwCnwicw
568634153450627072,Andrew discusses the greyhound live baiting scandal  http://t.co/1NRVRfH043 #AnimalsAustralia #LiveBaiting #auspol #politas
568557010121154560,Dogs' racing commissioner running out of time to act http://t.co/6WpCsY46ZI #politas #auspol #AnimalsAustralia  #LiveBaiting
568176876985847808,Time to close a northern hospital #politas http://t.co/tx4wUqcywN
567464418074566656,http://t.co/9XX0E3hCSy Integrity of greyhound industry gone to the dogs #auspol #politas
567172133449519104,http://t.co/mGrqU8wsXV A statement on the cut to the Roy Fagan Centre #auspol #politas
566169793590333440,"To kill is wrong, simple as that. Boycott Bali if Indonesia kills Chan &amp; Sukumaran. US etc no better on death penalty. AW #politas #auspol"
565744984972746754,Cadbury funding confirmed by PM http://t.co/4gttJM7iej #politas #auspol
565658757745901568,"Case against Abbott Government builds at The Hague #politas #auspol
http://t.co/5TJwDKDImt"
565371853980856320,http://t.co/zjO1O4noHl Question on GP co-payment #auspol #politas
563107081108983808,"Opinion piece on the value of education #politas #auspol
http://t.co/2tYzSE8GlU"
562076978954518530,Indies converge on regional university meeting http://t.co/ss4VfEti4v #politas #auspol
543195470722367488,Rebuilding the RHH #politas http://t.co/6YQHygmPUp
542810489789489152,Buyer beware: time for real estate reform #politas http://t.co/rt2JEfLf2G
540319738342031360,"Another 100,000 signatures supporting asylum seekers - well done GetUp! #auspol #politas #asylumseekers #getup http://t.co/S0292yUpYQ"
539642335059910657,Remove the crippling cost of Bass Strait #auspol #politas #bassstrait http://t.co/RCtPRr0Dxv
539285655835004928,NBN rollout moves at a glacial pace #politas #auspol http://t.co/DAZ4oi6Vbm
539246758279139328,Andrew Wilkie speaks to the Motion on Coastal Shiping #aupol #politas http://t.co/INuz3CmuUH
539202977567735808,A statement on Bass Strait #politas #auspol http://t.co/UGx6L5d9bM
538193524491972609,Bass Strait - a brake on Tasmania's economy #politas #auspol http://t.co/RasYp9FMTL
537381431857541120,A statement on State Government education cuts #auspol #politas #protectourschools http://t.co/SzyTdrtXrx
536735021592084481,Andrew questions Malcolm Turnbull on cuts to SBS and the ABC #politas #auspol http://t.co/hgpETrEIp1
536641546049683456,Poker machines still stink http://t.co/ivwuNEX2HW #politas #auspol
534489217011707905,A statement on additional ABC cuts #auspol #politas #friendsoftheABC #protectourABC http://t.co/nqtI4qukcM
530496759865573377,I called the Government a pack of sadists when it comes to animal welfare. Evil death cult would have been better. AW #auspol #banliveexport
527678673407594496,Andrew outlines why he will not support the Foreign Fighters Bill http://t.co/rGCIqnuDp8 #auspol #politas
526617725351624704,Mary and Mohammad meet Parliament #auspols # politas http://t.co/mCCt93Y6Q8
526537419760226304,Andrew Wilkie accepts petition to help people with uncommon cancers #WilkieMP #auspol #politas  http://t.co/Tz6MPURCdI
526528288739442688,Video of Andrew Wilkie introducing the phone towers Bill today #auspol #politas https://t.co/evmpPeoZLz
526506589579010048,http://t.co/APAMi8DK55 Giving the community rights on phone towers #auspol #politas
525142042767151104,Question on the use of Macquarie Point #auspol #politas #hobart http://t.co/LerqYORSoa
524886822145384448,More animal cruelty exposed on ABC TV tonight. Barnaby Joyce and live export industry don't care. Evil bastards. AW #auspol #politas #aph
524722277028360193,http://t.co/U81Oysmwsh ICC requested to investigate prosecution of Abbott Government #auspol
522160202393460736,Congratulations to Richard Flanagan for winning the Man Booker Prize. A terrific achievement by a great Tasmanian.
520408174440886272,A statement on RHH funding #politas http://t.co/4kOe6mYpGd
517566413561528320,http://t.co/7ZLsxL82Na A statement on burqas in Parliament House #auspol
517473782894579712,With your voice we can #endpoverty. Visit http://t.co/HEZU54iWFT to sign the petition. Congratulations to everyone involved in #roadtrip2014
517113541354987520,Andrew Wilkie's response to the Government's sweeping national security reform #auspol #politas #nationalsecurity http://t.co/GXKEAhyfYC
516384162668756992,https://t.co/FmsvS7YexG The September edition of The Wilkie Report focuses on the situation in Iraq. #auspol
513873062450565121,http://t.co/rpM4I9pbOU Howard embarrassed? He should be ashamed! #auspol
511736466917974017,Andrew Wilkie talks about the situation in Iraq #auspol #politas #iraqwar #wariniraq http://t.co/eGs5axzy7s
511732290016120832,A statement on AFP withdrawal from Hobart Airport #auspol #politas #afp #nationalsecurity http://t.co/VKbopWTtIg
510260045271949312,http://t.co/67qwvqkAHw Federal Government's latest animal welfare atrocity #auspol #politas #banliveexport
509180246860386305,Statement regarding a new criminal appeal process #auspol #politas #justice #tasgov http://t.co/Rte2tCJEmG
508764965000343552,http://t.co/GUe4nFBYtc - Reinforcing failure - the situation in Iraq #auspol
508026874467844096,Bravehearts’ Family Fun Day is on today. 10am to 2pm on Parliament House lawns in Hobart. http://t.co/lnU2LlDlJO
507370774307409920,Speech on the Government's Higher Education Reforms #auspol #politas #highereducation #universities http://t.co/qq2n0lNngb
507055649121787904,Pleased to be supporting Bravehearts’ Family Fun Day this Saturday. 10am to 2pm on Parliament House lawns in Hobart. http://t.co/lnU2LlDlJO
506971334417461248,Speech on the current situation in Iraq and matters of national security #auspol #politas #iraqwar #wariniraq http://t.co/DqBdQcmJZw
506598021476265984,"https://t.co/3KqP7i1l4Y Andrew on @triplej ""Hack"" explains his concerns regarding the situation in Iraq #auspol"
506292607136174080,Merits review for asylum seekers #auspol #politas #asylumseekers http://t.co/YqpOMFcJiY
504824273924407296,Government security policy full of holes #auspol #politas #iraqwar #nationalsecurity http://t.co/iBsw34xZqr
504792289017724928,This month's newsreel on animal welfare and the awful live export trade in particular #auspol #politas #banliveexport http://t.co/vsPnEcdAbk
504043002046607360,http://t.co/0DjOTSfeHU A statement on Iraq and the Sue Neill-Fraser case #politas #auspol
499766776477908995,http://t.co/0hAALifjFQ The truth about CSIRO job cuts #auspol #politas
499428756725846017,http://t.co/pjuGHSibH3 Farms hungry for industrial hemp for human consumption #auspol #politas
494708071101251584,"Andrew is excited to launch The Wilkie Report, his new monthly newsreel #politas http://t.co/h1jmqCkb2Z"
492531539654107136,http://t.co/u8bxfy9CMc A statement on the possible establishment of a single Tasmanian Health Organisation in Launceston #auspol #politas
492530568819507201,http://t.co/s1sGV2LoSp Don't leave pensioners out in the cold #auspol #politas
492159187099467777,The daily struggle of single mums on Newstart #politas #auspol http://t.co/q6WCWaKpe4
491030775924404224,Andrew talks to Landline about industrial hemp #politas #auspols http://t.co/LO1e6VDi0p
491025651000819713,Andrew Wilkie meets with Malcolm Turnbull about the NBN rollout #politas http://t.co/mDrQb0h4YJ
489616219641622529,Andrew calls for action on the economic crisis on Tasmania's West Coast http://t.co/Hr4A9a38Ke #politas #auspol
489284041267367936,A statement on the government's proposed security changes #auspol #politas #nationalsecurity #securityreform http://t.co/NzOv5cwlT5
488587084270018561,Andrew Wilkie's speech on the Carbon Price repeal in Federal Parliament today #auspol #politas #stopclimatechange http://t.co/1hFbI7Ti7g
488570600386854912,Deaf ears to concerns for Australian Hearing http://t.co/Iu1BhLdAl0 #politas #auspols
488518481105534976,Hands off Cadbury project #politas #auspols #chocolate http://t.co/wK6tscPItO
487418415867367424,An update on thhe RHH rescue http://t.co/yRInGnXmRj #politas
487378014376693760,Canberra doesn't own the public service - we all do. http://t.co/L3sc1hMSEa #auspol #politas
482032967825383425,Another Question Time and another shambles. Pack of juveniles. No wonder pollies are laughing stock and hated. AW #auspol #politas #aph
481989994815295488,‘Unforgivable war built on a lie’ - Opinion piece on the crisis in Iraq published in The Mercury on 26 June 2014 http://t.co/xo9c4pnYNF
481965051444596736,‘You can’t keep hiding the ugly truth’ - Opinion piece on live animal exports published in The Mercury 21 June 2014 http://t.co/KJxQw8jBlv
481643709289594880,Andrew Wilkie’s address to today’s anti-Budget rally in Hobart #auspol #politas #Budget2014 http://t.co/Uj5rNQYDuG
481360411661332483,A statement regarding the PC report into Tassie shipping #auspol #politas #BassStrait #TFES http://t.co/brU71K7fMa
481269556346757120,Time to nail down Government respect for UNESCO decision #auspol #politas #UNESCO #worldheritage #Doha http://t.co/ApZbjEJHUL
481004160515440641,Andrew Wilkie votes against Supply #auspol #budget2014 http://t.co/9RpKXnbv0r
480888551161098241,No PM should ever again be allowed to declare war #auspol #Iraqwar http://t.co/ovX75uojl4
479133752866508801,A statement on Tasmanian forest heritage listing #auspol #politas #WorldHeritage http://t.co/kBK83g5owe
478780409824546816,"A Royal Commission on the Iraq War, not more troops #auspol #iraqwar #royalcommission https://t.co/pNJmAMikNu"
478375847297306624,Australia should not repeat John Howard's sins in Iraq #auposl #politas http://t.co/okmXP4mCeM
478353377923850240,http://t.co/botXyYYIcC A statement on the federal cut to the Women's Legal Service #auspol #politas
477257845973340161,A statement on the crisis in Iraq #politas #fedpols #Iraq http://t.co/I5YmqZaRMS
476883165869395968,"Grassroots revolt against Federal Budget #politas #auspol #Budget2014 
http://t.co/UsyqHuQVYX"
476592263686926336,"CSIRO Staff Cuts - Supported by Liberals, Labor and Greens #auspol #politas #csiro http://t.co/U59YHhSsXO"
474357582551724035,The Budget and the Greens #politas #auspols http://t.co/K3Na6yte1F
471475154153791488,http://t.co/ALlyI4JdbS A statement on Qantas jobs in Hobart #auspol #politas
470747172049518592,A Bill to inject some compassion into Australia's immigration policy. #politas #ausposl #kidsindetention http://t.co/mo0jR8Kpn6
469644903912198144,Who is running the Royal Hobart Hospital? #politas http://t.co/sUtbKXt2Sj
469275936781643776,Will you commit to the AYCC Safe Climate Roadmap? I have. http://t.co/DJGKHFGLkE
463904964570390530,"http://t.co/0GboVEqfEW Royal Hobart Hospital ""rescue"" #politas #auspol"
461660855260557312,http://t.co/WxTWmVhKU4 Diary of a Manus Island guard #auspol
461374200289062912,http://t.co/EQ6YF9UzrW A statement on the Royal Hobart Hospital rebuild #auspol #politas
459182696648810496,End the uncertainty over the RHH rebuild http://t.co/DrJpxqVWRa #politas
455903534383235073,http://t.co/A1pvcLyjel Live export industry leaves Wilkie on the dock #auspol #politas #BanLiveExport
455483332520714240,A statement regarding the RHH rebuild http://t.co/Iek6HSsCnx
453763516231450624,http://t.co/f0i32RPZ9e A statement on cuts to @AusAntarctic Division jobs #auspol #politas
453672240085610498,"Proud to be an ambassador for Youth Homelessness Matters Day to raise awareness of the 26,000 young people sleeping rough #auspol #YHMD2014"
451857776579330048,Young Denison constituent selected to take on Canberra http://t.co/h6ndmv4ArB #politas #indigenous #youthparliament
449309056440619008,RT @HomelessnessAus: A lot of things can wait until Budget night - a safe and secure bed is not one of them #auspol http://t.co/FF8hwQ4CYw
449307576258154496,"Andrew questions PM on the detention of children on Christmas Is.
http://t.co/ee6jFtrsI3 #politas #auspol #refugees #humanrights"
446458973202685952,http://t.co/OoOOAc1ZHo #auspol #politas #Qantas  #qantascuts
445451461887930368,"http://t.co/sZnHW2LPMG The Republic, compassion and other things... #auspol #politas"
443878767757246464,"http://t.co/N60D5YPXww Labor, Liberals and Greens fail on light rail #auspol #politas"
431299151901782016,A statement on LSS loading live animals for export #auspol #politas #banliveexport http://t.co/sxUspFyODW
431298935953850368,A statement on the pokies industry's political donations #auspol #politas http://t.co/TM4PFRK45y
426593670750420992,A statement on Coroner's report into Sue Neill-Fraser case #auspol #politas http://t.co/Tnt8C1k4hf
426593403694886912,Bass Strait draft report cause for concern #auspol #politas #bassstrait http://t.co/R7vGE1UMDO
425115381837996032,A statement on the callousness in the live export industry #auspol #politas #banliveexport #animalsaustralia http://t.co/GpXjdSPhHI
425114981030297600,A statement regarding the Coalition's cruel aid policy #auspol #politas #MDGs #dontcutaid http://t.co/u1snXwgAcE
423693812825718784,Government trade negotiations especially bad for Tasmania #politas #auspol http://t.co/Ko9i9rrOed
422969796263542784,A statement regarding Qantas job cuts in Hobart http://t.co/FWqBnzdtBG
415285719750291457,Thanks for everything in '13. Best wishes for Christmas and '14.
408352373765963780,Speech on gambling reform http://t.co/DzSonoGvDX #auspol
408072935308398592,Question to the PM on gambling reform http://t.co/7mD3tuRkaq #auspol
408071638760947712,Speech on tertiary education http://t.co/FeG9QYPpqs #auspol
395741966589116417,A statement on latest animal cruelty revelations #auspol #politas #banliveexport http://t.co/Rz0xvBnyRg
392494823845818368,Great to see the ACT passing same-sex marriage law. An enlightened move. Abbott/Brandis must let it be. #auspol #politas
389617359607980032,A statement on more live animal export cruelty #auspol #politas #liveexports #AnimalsAustralia http://t.co/EemI0BABQE
387052038267207682,Jobs strife at UTas in no one's interest #auspol #politas http://t.co/PxOGKPxPDG
384907766684340224,A statement regarding live exports #auspol #politas #liveexport #banliveexport #animalwelfare http://t.co/739a9U18UP
383387610317471745,Drop by from 10-2 for the mobile office at Northgate #auspol #politas
382397359189000192,Just donated my pokies counter to the Tasmanian Museum and Art Gallery. Stoked it found a good home. #auspol #tmag http://t.co/6e5xQF8LUD
380884282228482048,Happy to be back out at Northgate hearing from constituents. Drop by from 10-2 #auspol #politas
380562657293504512,A further statement on foreign aid http://t.co/CI5qhySRrB #auspol #aidworks #endpoverty
376322572821880832,Victory in Denison. Many thanks to my friends and supporters #ausvotes #election2013 #denison #politas #auspol http://t.co/Ep6adawsd0
375943966878752770,It’s been an honour and privilege to represent Denison in 43rd Parliament. Thanks to my supporters &amp; volunteers. Big day tomorrow! #politas
375930124568236032,This federal campaign has been as underwhelming as 2010. Australia has had enough of personal attacks and small minded politics. #ausvotes
375896895027048448,Suicide Prevention Australia has launched a campaign to halve the suicide rate by 2023! #Vote1SuicidePrevention http://t.co/mGsP5I7WOa
375864986775453696,Foreign aid cuts bad for everyone http://t.co/F05XhCavmw #ausvotes #ausvotes #aidworks #endpoverty #auspol http://t.co/vWAOV73487
375204323992432640,The stories of children in mandatory detention must be heard. Please share this video. #asylum #ausvotes #auspol http://t.co/rgjXugd5mN
375169925414809600,The rally against cruelty to asylum seekers went well today. Thanks to all who attended! #asylum #politas #ausvotes http://t.co/irhwoJDx2r
375162919912087552,I support the Great Barrier Reef and a ban on dumping in world heritage waters. I’ve signed the #ReefPledge. #politas http://t.co/O6lilhratw
375141444266123264,Every Australian Counts. #disability #politas #auspol #ausvotes http://t.co/EYbVSFCT1m
375079748390506496,Rally for the humane treatment of asylum seekers about to get started at Parliament lawns #Hobart http://t.co/GiwBQEpeH1 #politas #ausvotes
375048213486514177,TODAY: rally for humane treatment of asylum seekers – please come along at 12.30 http://t.co/GiwBQEpeH1 #politas #auspol #ausvotes #asylum
375033546731036672,This video tells the stories of children in mandatory detention. Please share.  http://t.co/BhK5VUwJWp #politas #ausvotes #asylum #auspol
374814974587056129,TOMORROW: rally for humane treatment of asylum seekers http://t.co/GiwBQEpeH1 #politas #auspol #ausvotes #asylum http://t.co/n6wgfPBcYO
374444620970606592,Rally for humane treatment of asylum seekers http://t.co/GiwBQEpeH1 #politas #auspol #ausvotes #asylum http://t.co/i7ZkKAYnCt
372863586030604289,About to talk to Leon Compton on @936hobart. #politas
372630109385023489,RT @OurSayAust: Last night's Denison #CitizensAgenda forum was a huge success! Check out what @WilkieMP had to say about it http://t.co/buf…
372250844684496896,Statement regarding the mandatory detention of minors at Pontville Immigration Detention Centre http://t.co/AhBB5diECx #politas #ausvotes
372236185038368768,A statement regarding the Coalition’s poker machine policy  http://t.co/nai0ejZwHn #politas #auspol #gamblingreform #ausvotes
371459546188746752,We're half way through the campaign and it's time for a drink! http://t.co/tkQ3sQSgIl #politas
371205362986135553,I’m auctioning the tie I wore when I blew the whistle on Iraq. One of a kind! #ausvotes #auspol #politas http://t.co/nLTn7CV7sA
371184488396488704,I showed the Parliament and PM #liveexport cruelty. #BanLiveExport #animalwelfare #ausvotes #auspol #politas http://t.co/QDVui1q8kX
370432753776345088,Some say this unwieldy but unique sign got me elected. Buy your own slice of political history? #ausvotes #politas http://t.co/jbDHxoFKDx
370388206929186816,I bought this cheesy George Bush souvenir at the White House just after the Iraq invasion #ausvotes #auspol #politas http://t.co/tre2NYd5hH
370342735015714816,The “original crossbench” elected in 2010. Buy a photo signed by all six members! #ausvotes #auspol #politas http://t.co/zk8OR3dHFu
370129999673556993,@RealBobKatter is a unique politician. Check out this classic Katter headpiece. #ausvotes #auspol #politas http://t.co/MYSjlXMCqy
370099628865110017,My book “Axis of Deceit” tells of my Iraq War whistleblowing. I’m selling a signed copy. #ausvotes #auspol #politas http://t.co/jEtg5TzEgL
369993597396873216,Pick up a box of @KRuddMP’s Australian Afternoon Tea signed by the man himself! #ausvotes #auspol #politas http://t.co/2RUS3VISJX
369655672129867777,Labor preferences Liberals in how-to-vote hypocrisy http://t.co/4tiHcf2saF #politas #auspol #ausvotes
369284261183889408,A statement regarding Denison preferences http://t.co/IGvFjpldC2 #politas #auspol #ausvotes
368239715620622336,A statement regarding asylum seekers http://t.co/Ar4yBvJFIk #politas #ausvotes #auspol #asylum
368190066960523265,My mobile office at Northgate. Every Friday 10am-2pm. Feel free to drop by for a chat. #politas http://t.co/TkwFhy7ZoY
367916866435424256,I’ll be at the election candidates education forum at the University (Stanley Burbury theatre) tonight. Come along! #politas
367888044084305921,Labor said I'd do a deal with @TonyAbbottMHR. Nonsense. My new billboard telling it how it is. #politas #ausvotes http://t.co/GS5dg8KMwQ
367841599444619264,A statement regarding preference deals #auspol #politas #ausvotes http://t.co/ksN8T4AUOm
367469988434550784,Yet another light rail business case http://t.co/9wVOIRB8C6 #politas #auspol
366770786758950912,LAST CHANCE: enrolment closes at 8pm tonight! Don’t leave it too late! http://t.co/S79J0O92pq #ausvotes #auspol #politas
366744479652265988,Wilkie and NTEU unveil Denison TV ad campaign http://t.co/XFKp0XncTh http://t.co/zJjFajcQHa #politas #ausvotes #auspol #votesmart #dumbcuts
365985861193576448,You only have until 8pm Monday to enrol to vote. Don’t leave it too late! http://t.co/S79J0O92pq #ausvotes #politas #auspol
365751814546661377,A statement regarding Labor’s asylum seeker ad campaign http://t.co/hqbAOUQV26 #politas #auspol #ausvotes #asylum
365713986903216130,A statement regarding Tom Waterhouse’s business sale http://t.co/zfiGlZyi1X #auspol #politas #ausvotes #gamblingreform
365675754727538688,Ask all the difficult questions at @OurSayAust #citizenagenda. See Denison questions: http://t.co/MXSpZD5H7F #politas #ausvotes #auspol
365265128180027393,Dropping off my forms at the @AusElectoralCom. It’s official: I’m recontesting Denison! #Ausvotes #politas #auspol http://t.co/Uk1xHj8zHJ
364900971723247616,In the @7hofmhobart studio recording a radio ad. #auspol #politas #ausvotes http://t.co/7WgGWGWB7o
364640404412452864,Great to have the support of Neville and Lyn at Skyline South Hobart. #auspol #politas #ausvotes http://t.co/77zfjEgbWe
364291024014671874,Putting up my first election poster in Moonah. Thanks everyone for your support so far! #politas #ausvotes #auspol http://t.co/xNy4QV9buV
364262414558052352,A statement regarding automotive industry assistance #ausvotes #politas #auspol http://t.co/OuNq0q4jtY
364184062002348033,You’ve only got 1 week to make sure you’re correctly enrolled to vote! Go to http://t.co/9GEdOHlQQz now! #politas #auspol #ausvotes
363915598255759360,A statement regarding the federal election #politas #ausvotes #auspol http://t.co/NeLkSUWE3E
363203569572253696,Response to the economic statement #politas #auspol http://t.co/ETEFtQ5fCZ
362384439277412352,Taking a grade 4 class at Windermere Primary School in Claremont this morning. http://t.co/MeV7enHN5Q
362104454155206656,Wilkie welcomes tertiary union endorsement http://t.co/55ABIRt0UE #auspol #politas #dumbcuts @NTEUNational
362103432162713601,Fair go for future Tassie docs http://t.co/ql6VwzMZnm #auspol #politas #health http://t.co/yxfagBpuRN
361980108812197888,Veterans super boost good news http://t.co/qOLnfTIpsO #auspol #politas
360536569578401795,A statement regarding $1 maximum bets on poker machines http://t.co/NKB3FBlf1T #pokermachines #gamblingreform #politas #auspol
360186612933615616,I rode the Bridgewater–Hobart “express” bus this morning. The bus takes twice the time light rail would! #politas http://t.co/eQdW2dI9AQ
359929662920597504,Getting my photo taken outside my office for @ShelterTasmania’s #affordablehousing campaign. http://t.co/aLkmsSquix
359915410155503616,Dud DAFF report demonstrates need for #animalwelfare office http://t.co/D0atHhKO2s #liveexport #BanLiveExport #auspol #politas
359584380810829825,Rev @TimCostello of @WorldVision in #Hobart: towards a more compassionate Australia https://t.co/CArYkTbyEU #politas http://t.co/ZOKubcu7mT
359580731892183040,Yet another #Denison funding win! http://t.co/W01spUvtQa #politas
358477710072360960,A statement regarding the PNG ‘solution’ http://t.co/YRmj5EGiah #politas #auspol #asylumseekers #detention #Refugees
358106330831134721,A statement regarding increased cattle exports to Indonesia http://t.co/FZ839Tcg55 #liveexport #BanLiveExport #auspol #politas
357417063985315841,Checking out the new Claremont Footy Club lights tonight. Delighted to get the funding. A great result for this great club.
356666878959185920,Doorknocking in Montrose today. Good response. #politas http://t.co/LDCjraKOw9
356619268495908864,LESS THAN A WEEK TO GO! Andrew really needs your support! RSVP at https://t.co/F36aL4Qp8Z http://t.co/ncA5VNgoYo
354834844670361601,Good to see some money flow for Tassie #health but progress far too slow. People suffering due to State Gov inaction. #auspol #politas
354495666204057600,Just visited Hobart’s @ChoirHighHopes. A great group of people. Please consider supporting them however you can. http://t.co/IRsMzbe9tf
354489371736543232,Wilkie welcomes new school money http://t.co/tSNhobNDES #politas #auspol #betterschools #gonski
352680421739331584,LegCo report slams State Gov on light rail http://t.co/dklXodUp5n #auspol #politas
352271271507140608,Just did an interview with @ljayes for @SkyNewsAust to call for a #liveexport ban. #auspol #politas #BanLiveExport
352235045701943296,Fundraiser Greek feast with Independent Senator @Nick_Xenophon. Visit https://t.co/DqKQ4i68pd #politas #auspol http://t.co/v1apu52EL7
352221052455223296,No more live export http://t.co/eLVPex1C7U #liveexport #BanLiveExport #politas #auspol
351571076200927232,Another win for Claremont footy http://t.co/C29aTfpekn #politas
350161920814379008,Andrew with @mjrowland68 on @ABCNews24 @BreakfastNews this morning. #auspol #politas http://t.co/bS2QjZvony
350144497197391872,Andrew waiting to go live on @SkyNewsAust this morning. #auspol #politas http://t.co/cyvz4bUlSc
349835878652329985,A statement on the Labor leadership http://t.co/1pTuLh7BvF #politas #auspol #spill
348304094127079426,Kids with #autism and their families deserve a fair go http://t.co/hzsqWhQVmn #auspol #politas
347194614941356032,A statement on Palestine http://t.co/0AonFxVPUv #auspol #politas
342095591209332736,State Government must step up on psychiatric emergency nurses http://t.co/UjxQifaoWk #auspol #politas
342092924097544192,Wilkie lashes State Government over RHH in Federal Parliament http://t.co/bIVz16ksgz #auspol #politas
339932316656873472,No money no problem http://t.co/zsydX3uTHp #politas #auspol
339631566068252673,Wilkie will not take the money http://t.co/xQjHEkyVXF #auspol #politas
339248333052862464,Truth in labelling http://t.co/CFqGKdRnoB #auspol #politas http://t.co/Qd9g42raCp
338840086449881089,Andrew introduced his bill to #BanLiveExport: http://t.co/q83yX7hq5y #liveexport #auspol #politas
335188476041510912,Ban live export. http://t.co/6CoVIfNMzc #banliveexport #liveexport #auspol #politas http://t.co/usHOTeKB66
334929838051819520,Andrew Wilkie question to the Prime Minister 16 May 2013 http://t.co/ClyXW0CKUx #liveexport #auspol #politas
334879915746934784,More live export shame http://t.co/pDYePiyS6q #liveexport #auspol #politas http://t.co/L6uvjUgqkv
334247931748159489,Andrew Wilkie budget response http://t.co/wqZR5cJ20y #auspol #politas #budget2013 #budget
334182144719069185,University education too important to cut http://t.co/Qmsnd6eq2f #dumbcuts #investinunis
331588057037930496,No more chances - live exports must be banned #politas #auspol #liveexport #BanLiveExport http://t.co/yrUB2A2eks
330958954207268865,They gave the shirts off their backs http://t.co/vkfsUUNHuW #politas #football #footballfedtas http://t.co/kJ183jxI2W
330178035183648768,UTas mock media conference http://t.co/NhllYUZ2D5 #utas #politas http://t.co/YTNvM1k1t3
328663841946873856,"ANZAC Day dawn service address #AnzacDay
http://t.co/14kLru1F8a"
323333524407070720,A statement regarding education funding http://t.co/uRcCHOzdHA #politas #auspol #gonski
323030760544149504,"A statement on the university funding cuts 
http://t.co/PfoZ9lPNDx #auspol #politas #gonski"
322575140728750081,Labor-Greens State Government all talk on light rail http://t.co/KBzbWGUsFH #politas #auspol
321960671094923265,"Andrew is sleeping on the floor tonight to raise awareness for the 26,000 homeless young Australians. http://t.co/9YBevaojyR  #politas #YHMD"
321779919778611201,John Howard still misleading over Iraq fiasco http://t.co/qWQHJh7QzW #politas #auspol #iraq #IraqWar
320020326228566017,1000 days to MDGs deadline http://t.co/LtUTOP6HqP #endpoverty #MDGmomentum #AidWorks http://t.co/C3oGm2RvYD
316437024112525313,Statement regarding asylum seekers http://t.co/4kfcinEGQ3 #auspol #politas
316432924067131392,Statement regarding Afghanistan http://t.co/qAfUyQf82V #auspol #politas
314239677022490624,Statement regarding media reform http://t.co/GoBBCu1X9W #mediareform #auspol #politas http://t.co/YDimSc5caN
313789574021259264,Andrew met a delegation from RESULTS regarding the importance of aid http://t.co/nb1J0Vvx5r #endpoverty #auspol http://t.co/B7VO6QRuJ1
313508677569101825,Andrew Wilkie met with a delegation of Tibetans in Parliament House. http://t.co/ulmCUPXXxi #tibet #politas #auspol http://t.co/mtn667N04R
312002350166450178,Advocacy important http://t.co/ZLoYhQ8wVW #politas #auspol #ndis http://t.co/3VXscT1COG
311715768964366336,Wilkie secures bipartisan protection of Tassie GST share http://t.co/TV9UT9aSYg #politas #auspol http://t.co/XMVd0aMSCe
311376857062862848,Statement regarding media reform http://t.co/iKejNgI88o #auspol #politas #ausmedia
311353437939965953,Government online gambling cop out http://t.co/FV65ifW1ag #auspol #politas #gamblingreform
310858466438811648,A statement regarding the Iraq War #politas #auspol http://t.co/13xRLU5In1
309185869770788864,A statement regarding live animal exports #politas #auspol #liveexport http://t.co/wqrEAELYSC
308458888326426624,Wilkie takes phone tower fight to Council http://t.co/iopGwhwd6a #politas
307013924556009472,Andrew attended Societies Day at the University of Tasmania. #politas #oweek #utas http://t.co/rBuwhLpm56
306540168800780288,Time to look after those who look after our little ones http://t.co/9IY2tYcYxT #auspol #politas #bigsteps #childcare http://t.co/XvHdm8C45a
304721728830070784,Statement Regarding Poker Machine Trial http://t.co/KL4nPV0jp4 #auspol #politas #gamblingreform
302174334611488768,State Government needs to put light rail on track #politas http://t.co/UYU8YMh8
301475523383660544,Super Trawler well and truly sunk this time #auspol #politas #supertrawler http://t.co/u4cu99ZW
301469986910781440,Andrew addresses Parliament about live animal exports #liveexport #auspol #politas http://t.co/2OX7JrV9
301218493397876736,Wilkie pushes Parliament to intervene in Tassie freight woes #auspol #politas http://t.co/v7gWMvCG
300867271000223744,Andrew addresses Parliament in support of the National Disability Insurance Scheme Bill 2012 #auspol #politas #ndis http://t.co/Yi1nCRNM
299366143704068096,"A statement on organised crime, drugs, and gambling in sport #politas #auspol http://t.co/dY6v3bbZ"
299079488128561153,Andrew Wilkie calls on the Government to enhance the Tasmanian Freight Equalisation Scheme #auspol #politas http://t.co/FXn7vl1Z
299026441054593024,Environment Minister Tony Burke’s response to Andrew Wilkie’s super trawler question #auspol #politas http://t.co/SoQHP9KB
299009278843445248,Andrew addresses Federal Parliament about the importance of the Hobart Northern Suburbs Light Railway #politas http://t.co/RcbYV2mf
297176382641946624,"$814,615 Gambling Donations ‘Dirty Money’ #auspol #politas   
http://t.co/8vBs1KhF"
296815156208467968,Statement regarding gambling on elections #politas #auspol http://t.co/Htbed4PM
296797821129064448,Wilkie leading health talks in Canberra today #auspol #politas http://t.co/ieXomKFN
296796014361329664,A statement regarding the federal election #auspol #politas #election2013 http://t.co/5lAtJakZ
293510079540510720,A statement regarding local council mergers http://t.co/oWGZ5WXS #politas
293122872828915712,Denison Matters http://t.co/FqAlRcTe #auspol #politas #utas
291025440309661697,A statement regarding the Ombudsman's finding on the quota relevant to the super trawler http://t.co/GqtcpNf2 #auspol #politas
288408357860171776,RSL Tasmania Bushfire Appeal http://t.co/QfEXt8ea #tasfires
288153547852349440,Tasmanian Bushfires 2013 Appeal http://t.co/nLwybtlh
288152945273491456,RT @rockoyster: @WilkieMP How about a RT? http://t.co/L4jarkkX
281544627725668352,A statement regarding the ANFs call to reallocate the $325m health bailout http://t.co/i1cx449z #auspol #politas
280845680988278784,A statement regarding the cut to foreign aid http://t.co/emticrD5 #auspol #dontcutaid
278672325430349824,A Statement Regarding the Live Export Trade http://t.co/KEd2JXnY #auspol #liveexport
278259361984425985,Encore for cultural scene in Denison http://t.co/KdhrYZcI #auspol #politas
276842700878266368,SOS for Ambulance Tasmania http://t.co/sMXMj4GH #politas
275736637982515200,A Statement on today's Support the ABC and Tassie Jobs Rally #auspol #politas http://t.co/pwcKlbJh
273614043951030275,Andrew Wilkie supports the Federal Government's poker machine reforms http://t.co/tVygCdgI #auspol #pokies
273613593432444929,Andrew Wilkie presents a committee report on the National Gambling Reform Bill 2012 http://t.co/Ux9LZj15 #auspol #pokies
273207694352080897,Report on the National Gambling Reform Bill 2012 http://t.co/IijhW1HV #auspol #pokies
270748124321038336,A statement regarding the closure of ABC Hobart's internal tv production unit http://t.co/ygrUtBw9
267795307524399104,Policy should come before toxic dump http://t.co/Rq0kndzV #politas
263871277243191297,Long overdue protection for whistleblowers http://t.co/T8HavvSN #auspol http://t.co/ffCrHJm9
263868866801844224,A statement regarding poker machine reform http://t.co/3kTnQhpC #auspol #pokies
256578339396022272,Pokies Reform: something is better than nothing http://t.co/wR8iLiRO #auspol #pokies
256282990651518976,Mental Health Crisis #politas http://t.co/qEeiGMtw
248311595413938176,A statement on the super trawler http://t.co/nNgomsMW #auspol #politas #supertrawler
248301278868942848,A statement regarding more cruelty in the live export trade http://t.co/A2DiT7dm #auspol #liveexport
245354547889975297,A Statement on the Super Trawler http://t.co/Spowlohq #auspol #politas #supertrawler
245055105370562560,Improving consumer protection for bank customers #auspol http://t.co/4g21OFXc
245054639500828672,Second chance to stop the cruelty #liveexport #auspol http://t.co/gOOi8gLU
240628034179309568,Go West #auspol #politas #FIFO http://t.co/r1IpyBv9
237766863814291456,Taming The Banking Tigers #auspol http://t.co/pMPJCf65
213461428307374080,$325M rescue package to revive Tasmania's public health system http://t.co/UnAhfJG6 #politas #auspol
209548175084765184,Soccer infrastructure to get $1.2m kickalong http://t.co/11keDm3i #politas
209496037986025472,Wilkie secures $2.5M for New Town Bay Rowing Centre http://t.co/EczLUJmP #politas
208429240465637376,$5 million for a sustainable future for aquaculture and forestry http://t.co/ht9HNFt3 #auspol #Hobart #Tasmania
208359910969327618,Andrew Wilkie's Live Animal Exports speech delivered in Parliament this week http://t.co/GKZnDUSL #liveexport #auspol
208049484675031040,A Statement by Andrew Wilkie Regarding Marriage Equality #auspol #marriageequality http://t.co/pSXbpIPc
204770954340081664,Statement by Andrew Wilkie Regarding Government Poker Machine Reform http://t.co/F3dbZAeh #auspol #politas #pokies
204460804517539840,A Statement from Andrew Wilkie Regarding Craig Thomson http://t.co/N9zx0wSa #auspol
200379856784064512,Andrew Wilkie supports Schoolkids Bonus http://t.co/15xNLqMS #politas #auspol #budget2012
200067805998104576,Wilkie Focussing on Urgent Need for Federal Assistance http://t.co/PZ1jXR7r #politas #auspol
199810222527741954,A Statement from Andrew Wilkie on the Federal Budget http://t.co/hBvqf6KS #politas #auspol #budget2012
197487625869864961,Wilkie Fights for Tasmania's GST Share http://t.co/o1BUHCnQ #auspol #politas
194687869741309953,A Statement on Peter Slipper http://t.co/e4XCy4Ft #auspol
194287680392151040,A Statement on Poker Machine Reform http://t.co/hl7PZph6 #auspol #pokies
187070411652083716,Australia's foreign aid is too important to cut. We should instead increase it to 0.7% of GNI as we promised in 2000. #auspol #dontcutaid
182658377862746113,Discussions Continue on Government Pokies Reform http://t.co/WRWu0Xn5 #auspol #pokies
182005377058082816,My request to the Prime Minister and Opposition Leader to donate to my @LeukaemiaAus #worldsgreatestshave http://t.co/kP7MZJGu #auspol
182004683676721153,"My speech from last night concerning Australia's continuing involvement in the war in
Afghanistan http://t.co/qV3UXbX3 #auspol"
180419495695888384,Andrew Wilkie Loses the Lot http://t.co/hPrls13X for @LeukaemiaAus #worldsgreatestshave. Sponsor here http://t.co/NxUX4L4E
180417929110761472,Wilkie Loses the Lot http://t.co/hPrls13X #auspol #politas http://t.co/NxUX4L4E
180091088269357056,Tomorrow I'll be shaving my head for #worldsgreatestshave. Please sponsor me here http://t.co/6n4Gmeln @LeukaemiaAus
179722392128602114,An Australian life is lost to blood cancer about every 2 hours. Sponsor my #worldsgreatestshave here http://t.co/6n4Gmeln @LeukaemiaAus
179451960578146304,@LeukaemiaAus Few risk factors + no warning = devastating impact on patient &amp; family. 3 days to my #worldsgreatestshave http://t.co/NxUX4L4E
179327903476092929,3 days to my #worldsgreatestshave http://t.co/NxUX4L4E. Around 11500 Australians will be diagnosed this year - 31 each day. @LeukaemiaAus
179089532451434496,"4 days to my #worldsgreatestshave @LeukaemiaAus receives no ongoing govt funding, relies on your generosity. Sponsor me http://t.co/NxUX4L4E"
178313057875918849,Blood cancer can develop in anyone of any age at any time. Sponsor my #worldsgreatestshave http://t.co/NxUX4L4E 6 days to go @LeukaemiaAus
178001734885584896,Leukaemia is the No 1 childhood cancer in Australia. Sponsor my #worldsgreatestshave here http://t.co/5PeGJ8Db 7 days to go @LeukaemiaAus
177946803726073857,A child with leukaemia spends 2 to 3 years in treatment. 7 days to my #worldsgreatestshave. Sponsor me - http://t.co/NxUX4L4E @LeukaemiaAus
177918663691730944,@ruralconcepts will definitely shave - here's a link http://t.co/1eUEJExe
177910302527062016,An Australian child is diagnosed with blood cancer every 36 hours. 7 days to my #worldsgreatestshave http://t.co/S6EmuqfP @LeukaemiaAus
177531572793245696,#worldsgreatestshave is the biggest contributor to the @LeukaemiaAus research budget. 8 days till my shave. Sponsor me! http://t.co/99Ksokif
177517177732210688,We shall never forget http://t.co/zc1Hj5dJ #politas
177273948927569920,@LeukaemiaAus free services for today's patients and research into tomorrow's cures. 9 days to my #worldsgreatestshave http://t.co/99Ksokif
176954844421173248,I want to help keep @LeukaemiaAus services free! Please sponsor my #worldsgreatestshave http://t.co/99Ksokif Help make a difference!
176799982303711232,@LeukaemiaAus services are free - I want to help keep it that way! Donate to my #worldsgreatestshave: http://t.co/NxUX4L4E
176441195319410688,@LeukaemiaAus services are free - I want to help keep it that way! Donate to my shave: http://t.co/NxUX4L4E. Help make a difference!
174634520186859520,"Pokies, Big Business and the PM's Backbone http://t.co/Uv9qCOoo  #pokies #auspol"
172925196913737728,Leukaemia Foundation services are free - I want to help keep it that way! Donate to my shave: http://t.co/NxUX4L4E. Help make a difference!
172873022959652864,$340M and a new RHH - Grants Commission confirms great deal for Tasmania http://t.co/pGA6XrgF #politas
172460550276644866,A Statement from Andrew Wilkie http://t.co/NCjhbJ6X #auspol
170356186087043072,Andrew addressed Parliament on Monday about Rob Oakeshott's gambling reform motion http://t.co/Tm876WRR #auspol #pokies #politas
168974618416250880,Andrew addressed Parliament about his motion regarding marriage equality http://t.co/0S5zhwN7 #auspol #marriageequality #ssm
168971693828743168,Andrew addressed Parliament about the Gambling Reform Committee's latest report http://t.co/aLWoWPmP #auspol #gamblingreform
161964736089567232,Today 31 Australians will be given the news they have blood cancer. Sponsor me for #WorldsGreatestShave @LeukaemiaAus http://t.co/6iMbP1pP
161350414040698880,I'm being brave for #WorldsGreatestShave Please sponsor me and help me reach my goal @LeukaemiaAus http://t.co/6iMbP1pP
161346415296135168,Andrew Wilkie Withdraws Support for Government http://t.co/aJcEbs3O #auspol #politas #pokies
160185170106908672,http://t.co/UJ9n141Z #stoptheloss #pokies #auspol
159826762778415105,Wilkie meeting with PM today http://t.co/s3fP4wnl #auspol #pokies
159444240844333056,Andrew Wilkie not backing down http://t.co/xDdC2kxT #auspol #pokies
159200074356883456,Bryan Green Misleads Tasmania http://t.co/tpvkJMZl #politas #pokies
130785219073675264,AW due to speak on Livestock Export (Animal Welfare Conditions) Bill in House of Reps at 10.20am” http://t.co/ksCuT0Oz #liveexport #auspol
129762585682788353,RHH rebuild work going to mainland companies http://t.co/MocQ4AZY #politas #hobart
129381868738064384,Crown's profits come at a cost #pokies #gamblingreform #auspol http://t.co/a5CdFa2h
129370271399415808,NOW on ABC News 24 http://t.co/2TyqXr7c #gamblingreform #auspol
129354141762985984,MEDIA ALERT - 12:30pm today at Parliament Lawns Hobart #gamblingreform #auspol http://t.co/ImffEWgy
129027245770674178,Wilkie slams Abbott's pokie stance http://t.co/TFOmKYoG @abcnews
129014274990419968,Abbott out of his depth on pokies reform #gamblingreform #auspol http://t.co/1rM7Hlc2
